DATA607 Week 9 Assignment
…
Week 10 Assignment Rubric.pdf (45.194 KB)

In Text Mining with R, Chapter 2 looks at Sentiment Analysis. In this assignment, you should start by getting the primary example code from chapter 2 working in an R Markdown document. You should provide a citation to this base code. Youre then asked to extend the code in two ways:

Work with a different corpus of your choosing, and

Incorporate at least one additional sentiment lexicon (possibly from another R package that youve found through research).

\(As\ usual,\ please\ submit\ links\ to\ both\ an\ .Rmd\ file\ posted\ in\ your\ GitHub\ repository\ and\ to\ your\ code\ on\ rpubs.com.\)\(\ You\ make\ work\ on\ a\ small\ team\ on\ this\ assignment.\)

Primary example code from Chapter 2

get_sentiments("afinn")

## # A tibble: 2,477 x 2
##    word       value
##    <chr>      <dbl>
##  1 abandon       -2
##  2 abandoned     -2
##  3 abandons      -2
##  4 abducted      -2
##  5 abduction     -2
##  6 abductions    -2
##  7 abhor         -3
##  8 abhorred      -3
##  9 abhorrent     -3
## 10 abhors        -3
## # ... with 2,467 more rows

get_sentiments("bing")

## # A tibble: 6,786 x 2
##    word        sentiment
##    <chr>       <chr>    
##  1 2-faces     negative 
##  2 abnormal    negative 
##  3 abolish     negative 
##  4 abominable  negative 
##  5 abominably  negative 
##  6 abominate   negative 
##  7 abomination negative 
##  8 abort       negative 
##  9 aborted     negative 
## 10 aborts      negative 
## # ... with 6,776 more rows

get_sentiments("nrc")

## # A tibble: 13,901 x 2
##    word        sentiment
##    <chr>       <chr>    
##  1 abacus      trust    
##  2 abandon     fear     
##  3 abandon     negative 
##  4 abandon     sadness  
##  5 abandoned   anger    
##  6 abandoned   fear     
##  7 abandoned   negative 
##  8 abandoned   sadness  
##  9 abandonment anger    
## 10 abandonment fear     
## # ... with 13,891 more rows
…
nrc_joy <- 
  get_sentiments("nrc") %>% 
    filter(sentiment == "joy")

tidy_books %>%
  filter(book == "Emma") %>%
    inner_join(nrc_joy) %>%
      count(word, sort = TRUE)

## Joining, by = "word"

## # A tibble: 303 x 2
##    word        n
##    <chr>   <int>
##  1 good      359
##  2 young     192
##  3 friend    166
##  4 hope      143
##  5 happy     125
##  6 love      117
##  7 deal       92
##  8 found      92
##  9 present    89
## 10 kind       82
## # ... with 293 more rows
…
